Transformação e Manipulação de Dados com a linguagem R - 4 Transformação de Dados com DPLYR
…
Use group_by (.data, …, .add = FALSE, .drop = TRUE) para criar uma cópia da tabela agrupada por colunas. As funções do dplyr irão manipular cada grupo separadamente e combinar os resultados.

Importante

Se compararmos o resultado de uma tabela antes e depois do agrupamento (group_by), apenas uma informação sobre o grupo será visível.

Isto significa que o agrupamento só afetará o resultado de saída se utilizado em conjunto com funções que entendam esta mudança de contexto, como as funções do dyplr.

Por exemplo, ANTES de agruparmos pela variável cyl (group_by(cyl)) temos:

mtcars |> 
  as_tibble()

# A tibble: 32 × 11
     mpg   cyl  disp    hp  drat    wt  qsec    vs    am  gear  carb
   <dbl> <dbl> <dbl> <dbl> <dbl> <dbl> <dbl> <dbl> <dbl> <dbl> <dbl>
 1  21       6  160    110  3.9   2.62  16.5     0     1     4     4
 2  21       6  160    110  3.9   2.88  17.0     0     1     4     4
 3  22.8     4  108     93  3.85  2.32  18.6     1     1     4     1
 4  21.4     6  258    110  3.08  3.22  19.4     1     0     3     1
 5  18.7     8  360    175  3.15  3.44  17.0     0     0     3     2
 6  18.1     6  225    105  2.76  3.46  20.2     1     0     3     1
 7  14.3     8  360    245  3.21  3.57  15.8     0     0     3     4
 8  24.4     4  147.    62  3.69  3.19  20       1     0     4     2
 9  22.8     4  141.    95  3.92  3.15  22.9     1     0     4     2
10  19.2     6  168.   123  3.92  3.44  18.3     1     0     4     4
# … with 22 more rows
# ℹ Use `print(n = ...)` to see more rows

DEPOIS do group_by:

mtcars |> 
  group_by(cyl) 

# A tibble: 32 × 11
# Groups:   cyl [3]
     mpg   cyl  disp    hp  drat    wt  qsec    vs    am  gear  carb
   <dbl> <dbl> <dbl> <dbl> <dbl> <dbl> <dbl> <dbl> <dbl> <dbl> <dbl>
 1  21       6  160    110  3.9   2.62  16.5     0     1     4     4
 2  21       6  160    110  3.9   2.88  17.0     0     1     4     4
 3  22.8     4  108     93  3.85  2.32  18.6     1     1     4     1
 4  21.4     6  258    110  3.08  3.22  19.4     1     0     3     1
 5  18.7     8  360    175  3.15  3.44  17.0     0     0     3     2
 6  18.1     6  225    105  2.76  3.46  20.2     1     0     3     1
 7  14.3     8  360    245  3.21  3.57  15.8     0     0     3     4
 8  24.4     4  147.    62  3.69  3.19  20       1     0     4     2
 9  22.8     4  141.    95  3.92  3.15  22.9     1     0     4     2
10  19.2     6  168.   123  3.92  3.44  18.3     1     0     4     4
# … with 22 more rows
# ℹ Use `print(n = ...)` to see more rows
…
4.8.2.5 Combinando colunas para uniões

Se não for definido o parâmetro “by =”, a função irá automaticamente selecionar todas as colunas com o mesmo nome para definir uma chave.

Se usarmos by = vetor, por exemplo, by = c(“Estado”), estamos definindo a chave de maneira explícita. Podemos definir uma chave contendo mais que uma colunas usando c(“coluna1”, “coluna2”), com isto, a união será feita encontrando os valores comuns em ambas as colunas das duas tabelas.

Se quisermos definir uma chave que não possui o mesmo nome nas duas tabelas, podemos ainda usar o parametro by = c(“coluna de X” = “aa”, “coluna de Y” = “bb”).

Para exemplificar este caso, vamos renomear a coluna “Estado” da tabela Y para “State” e salvarmos numa tabela Z. Depois iremos usar o parametro by = para definir esta coluna como chave e então podermos efetuar uma união (ex, left_join()).

Z <- rename(Y, State = Estado)
left_join (Z, X, by = c("State" = "Estado"))  

# A tibble: 34 × 10
   Abreviacao State   Popul…¹ Income Illit…² Life …³ Murder HS Gr…⁴ Frost   Area
   <chr>      <chr>     <dbl>  <dbl>   <dbl>   <dbl>  <dbl>   <dbl> <dbl>  <dbl>
 1 AL         Alabama    3615   3624     2.1    69.0   15.1    41.3    20  50708
 2 AK         Alaska      365   6315     1.5    69.3   11.3    66.7   152 566432
 3 AZ         Arizona    2212   4530     1.8    70.6    7.8    58.1    15 113417
 4 AR         Arkans…    2110   3378     1.9    70.7   10.1    39.9    65  51945
 5 DE         Delawa…     579   4809     0.9    70.1    6.2    54.6   103   1982
 6 FL         Florida    8277   4815     1.3    70.7   10.7    52.6    11  54090
 7 GA         Georgia    4931   4091     2      68.5   13.9    40.6    60  58073
 8 HI         Hawaii      868   4963     1.9    73.6    6.2    61.9     0   6425
 9 KS         Kansas     2280   4669     0.6    72.6    4.5    59.9   114  81787
10 KY         Kentuc…    3387   3712     1.6    70.1   10.6    38.5    95  39650
# … with 24 more rows, and abbreviated variable names ¹​Population, ²​Illiteracy,
#   ³​`Life Exp`, ⁴​`HS Grad`
# ℹ Use `print(n = ...)` to see more rows
…
      Abreviacao
      Estado

    XX
Estado inexistente

4.8.3.4 nest_join

Use para retornar todas as linhas e colunas de X em uma nova coluna contendo todos os valores encontrados em Y.

Por exemplo, para criar uma colunas na tabela Y, contendo os registros encontrados na tabela X que são comuns entre elas, ou seja, que possuem a coluna Estado com valores comuns entre elas:

nest_join(Y, X, by = "Estado", name = "Dados de X") 

# A tibble: 34 × 3
   Abreviacao Estado   `Dados de X`    
   <chr>      <chr>    <list>          
 1 AL         Alabama  <tibble [1 × 8]>
 2 AK         Alaska   <tibble [1 × 8]>
 3 AZ         Arizona  <tibble [1 × 8]>
 4 AR         Arkansas <tibble [1 × 8]>
 5 DE         Delaware <tibble [1 × 8]>
 6 FL         Florida  <tibble [1 × 8]>
 7 GA         Georgia  <tibble [1 × 8]>
 8 HI         Hawaii   <tibble [1 × 8]>
 9 KS         Kansas   <tibble [1 × 8]>
10 KY         Kentucky <tibble [1 × 8]>
# … with 24 more rows
# ℹ Use `print(n = ...)` to see more rows
…
