Transformação e Manipulação de Dados com a linguagem R - 3 Organização de Dados com TIDYR
…
3.2.1.3 as_tibble

Use para converter um data frame para um tibble.

Por exemplo, para converter o data frame MTCARS para um tibble, fazemos:

as_tibble(mtcars)

# A tibble: 32 × 11
     mpg   cyl  disp    hp  drat    wt  qsec    vs    am  gear  carb
   <dbl> <dbl> <dbl> <dbl> <dbl> <dbl> <dbl> <dbl> <dbl> <dbl> <dbl>
 1  21       6  160    110  3.9   2.62  16.5     0     1     4     4
 2  21       6  160    110  3.9   2.88  17.0     0     1     4     4
 3  22.8     4  108     93  3.85  2.32  18.6     1     1     4     1
 4  21.4     6  258    110  3.08  3.22  19.4     1     0     3     1
 5  18.7     8  360    175  3.15  3.44  17.0     0     0     3     2
 6  18.1     6  225    105  2.76  3.46  20.2     1     0     3     1
 7  14.3     8  360    245  3.21  3.57  15.8     0     0     3     4
 8  24.4     4  147.    62  3.69  3.19  20       1     0     4     2
 9  22.8     4  141.    95  3.92  3.15  22.9     1     0     4     2
10  19.2     6  168.   123  3.92  3.44  18.3     1     0     4     4
# … with 22 more rows
# ℹ Use `print(n = ...)` to see more rows
…
Se pedirmos para listar todos os personagens e utilizarmos a função drop_na(), estes 5 personagens não serão listados:

starwars |> 
  select(name, hair_color) |> 
  drop_na()

# A tibble: 82 × 2
   name               hair_color   
   <chr>              <chr>        
 1 Luke Skywalker     blond        
 2 Darth Vader        none         
 3 Leia Organa        brown        
 4 Owen Lars          brown, grey  
 5 Beru Whitesun lars brown        
 6 Biggs Darklighter  black        
 7 Obi-Wan Kenobi     auburn, white
 8 Anakin Skywalker   blond        
 9 Wilhuff Tarkin     auburn, grey 
10 Chewbacca          brown        
# … with 72 more rows
# ℹ Use `print(n = ...)` to see more rows
3.6.0.2 fill

Use para substituir o valores ausente (NA) da coluna pelo último valor disponível em linhas anteriores ou posteriores.

Por exemplo:

Como vimos no exemplo da função drop_na, temos 5 personagens de starwars que não possuem cor de cabelo preenchido.

Digamos que decidimos substituir estes NAs pelo cor de cabelo do personagem anterior disponível. Para isso, faremos:

starwars |> 
  select (name, hair_color) |> 
  fill(hair_color)

# A tibble: 87 × 2
   name               hair_color   
   <chr>              <chr>        
 1 Luke Skywalker     blond        
 2 C-3PO              blond        
 3 R2-D2              blond        
 4 Darth Vader        none         
 5 Leia Organa        brown        
 6 Owen Lars          brown, grey  
 7 Beru Whitesun lars brown        
 8 R5-D4              brown        
 9 Biggs Darklighter  black        
10 Obi-Wan Kenobi     auburn, white
# … with 77 more rows
# ℹ Use `print(n = ...)` to see more rows

Veja que o personagem C-3PO que tinha a cor de cabelo não preenchida, agora está como loiro (blond), pois o personagem anteriormente preenchido, era o Luke Skywalker, que tinha a cor de cabelo loiro (blond). Já o personagem R5-D4, teve sua cor de cabelo preenchida de marron (brown), pois o personagem anterior Beru Whitesun lars, tinha o cabelo marron (brown).

3.6.0.3 replace_na

Use para substituir os valores de NA por um valor específico.

Por exemplo, vamos substituir a cor de cabelo dos personagens que tem NA na coluna “hair_color” pela cor azul (blue).

starwars |> 
  select(name, hair_color) |> 
  replace_na(list(hair_color = "blue"))

# A tibble: 87 × 2
   name               hair_color   
   <chr>              <chr>        
 1 Luke Skywalker     blond        
 2 C-3PO              blue         
 3 R2-D2              blue         
 4 Darth Vader        none         
 5 Leia Organa        brown        
 6 Owen Lars          brown, grey  
 7 Beru Whitesun lars brown        
 8 R5-D4              blue         
 9 Biggs Darklighter  black        
10 Obi-Wan Kenobi     auburn, white
# … with 77 more rows
# ℹ Use `print(n = ...)` to see more rows
…
Agora temos as colunas “year”, “lat” e “long” aninhadas na coluna de lista chamada “data” para cada observação da coluna “name”.

Assim como vimos anteriormente, podemos acessar as tibbles da coluna dat usando [[ ]]. Por exemplo:

n_storms$data[[1]]

# A tibble: 30 × 3
    year   lat  long
   <dbl> <dbl> <dbl>
 1  1975  27.5 -79  
 2  1975  28.5 -79  
 3  1975  29.5 -79  
 4  1975  30.5 -79  
 5  1975  31.5 -78.8
 6  1975  32.4 -78.7
 7  1975  33.3 -78  
 8  1975  34   -77  
 9  1975  34.4 -75.8
10  1975  34   -74.8
# … with 20 more rows
# ℹ Use `print(n = ...)` to see more rows
…
3.7.4 Reformatando dados Aninhados

3.7.4.1 unest

Use para desaninhar os dados. Esta função, faz o inverso da função nest.

Por exemplo, para desaninhar os dados da coluna data criada na tabela n_storms, fazemos:

n_storms |> 
  unnest(data)

# A tibble: 11,859 × 4
   name   year   lat  long
   <chr> <dbl> <dbl> <dbl>
 1 Amy    1975  27.5 -79  
 2 Amy    1975  28.5 -79  
 3 Amy    1975  29.5 -79  
 4 Amy    1975  30.5 -79  
 5 Amy    1975  31.5 -78.8
 6 Amy    1975  32.4 -78.7
 7 Amy    1975  33.3 -78  
 8 Amy    1975  34   -77  
 9 Amy    1975  34.4 -75.8
10 Amy    1975  34   -74.8
# … with 11,849 more rows
# ℹ Use `print(n = ...)` to see more rows

3.7.4.2 unest_longer

Use para desaninhar um coluna de lista, tornando cada elemento da lista em uma linha.

Por exemplo, na tabela starwars, temos uma coluna de lista chamada “films”, nesta coluna temos uma lista de filmes que cada personagem participou. Se quisermos desaninhar esta coluna e colocar cada filme em uma linha, faremos:

starwars |> 
select(name, films) |> 
unnest_longer(films)

# A tibble: 173 × 2
   name           films                  
   <chr>          <chr>                  
 1 Luke Skywalker The Empire Strikes Back
 2 Luke Skywalker Revenge of the Sith    
 3 Luke Skywalker Return of the Jedi     
 4 Luke Skywalker A New Hope             
 5 Luke Skywalker The Force Awakens      
 6 C-3PO          The Empire Strikes Back
 7 C-3PO          Attack of the Clones   
 8 C-3PO          The Phantom Menace     
 9 C-3PO          Revenge of the Sith    
10 C-3PO          Return of the Jedi     
# … with 163 more rows
# ℹ Use `print(n = ...)` to see more rows

3.7.4.3 unest_wider

Use para desaninhar um coluna de lista, tornando cada elemento da lista em uma coluna.

Por exemplo, na tabela starwars, temos uma coluna de lista chamada “films”, nesta coluna temos uma lista de filmes que cada personagem participou. Se quisermos desaninhar esta coluna e colocar cada filme em uma coluna, faremos:

starwars |> 
  select(name, films) |> 
  unnest_wider(films, names_sep = '_')

# A tibble: 87 × 8
   name               films_1    films_2 films_3 films_4 films_5 films_6 films_7
   <chr>              <chr>      <chr>   <chr>   <chr>   <chr>   <chr>   <chr>  
 1 Luke Skywalker     The Empir… Reveng… Return… A New … The Fo… <NA>    <NA>   
 2 C-3PO              The Empir… Attack… The Ph… Reveng… Return… A New … <NA>   
 3 R2-D2              The Empir… Attack… The Ph… Reveng… Return… A New … The Fo…
 4 Darth Vader        The Empir… Reveng… Return… A New … <NA>    <NA>    <NA>   
 5 Leia Organa        The Empir… Reveng… Return… A New … The Fo… <NA>    <NA>   
 6 Owen Lars          Attack of… Reveng… A New … <NA>    <NA>    <NA>    <NA>   
 7 Beru Whitesun lars Attack of… Reveng… A New … <NA>    <NA>    <NA>    <NA>   
 8 R5-D4              A New Hope <NA>    <NA>    <NA>    <NA>    <NA>    <NA>   
 9 Biggs Darklighter  A New Hope <NA>    <NA>    <NA>    <NA>    <NA>    <NA>   
10 Obi-Wan Kenobi     The Empir… Attack… The Ph… Reveng… Return… A New … <NA>   
# … with 77 more rows
# ℹ Use `print(n = ...)` to see more rows

3.7.4.4 hoist

Use para selecionar componentes específicos de uma lista e desaninhá-lo em uma nova coluna. É similar ao unnest_wider(), mas desaninha colunas específicas usando a sintaxe do purrr:pluck().

Por exemplo, vamos desaninhar apenas o primeiro e segundo filmes em que o psernagem de starwars particiou e manter os demais anihados:

starwars %>%
select(name, films) %>%
hoist(films, "1o_filme" = 1, "2o_filme" = 2)

# A tibble: 87 × 4
   name               `1o_filme`              `2o_filme`           films    
   <chr>              <chr>                   <chr>                <list>   
 1 Luke Skywalker     The Empire Strikes Back Revenge of the Sith  <chr [3]>
 2 C-3PO              The Empire Strikes Back Attack of the Clones <chr [4]>
 3 R2-D2              The Empire Strikes Back Attack of the Clones <chr [5]>
 4 Darth Vader        The Empire Strikes Back Revenge of the Sith  <chr [2]>
 5 Leia Organa        The Empire Strikes Back Revenge of the Sith  <chr [3]>
 6 Owen Lars          Attack of the Clones    Revenge of the Sith  <chr [1]>
 7 Beru Whitesun lars Attack of the Clones    Revenge of the Sith  <chr [1]>
 8 R5-D4              A New Hope              <NA>                 <chr [0]>
 9 Biggs Darklighter  A New Hope              <NA>                 <chr [0]>
10 Obi-Wan Kenobi     The Empire Strikes Back Attack of the Clones <chr [4]>
# … with 77 more rows
# ℹ Use `print(n = ...)` to see more rows
…
Uma função vetorizada recebe um vetor, transforma cada elemento em paralelo e retorna um vetor de mesmo tamanho que o vetor de entrada. Estas funções sozinhas não trabalham com listas, e consequentemente, não trabalham com colunas de listas.

A função dplyr::rownames() agrupa cada linha da tabela em um grupo diferente e dentro de cada grupo os elementos da coluna de lista aparecem diretamente (acessados por colchetes duplo) e não mais como uma lista e tamanho 1.

Portanto, quando usamos a rownames(), as funções vetorizadas do pacote dplyr poderão ser aplicadas em uma coluna de lista de uma forma vetorizada.

3.7.5.1 Exemplo 1:

Vamos aplicar a função mutate() para criar uma nova coluna de lista contendo as dimensões do tibble presente na coluna “data”:

n_storms  |> 
  rowwise() |> 
  mutate ("dim" = list(dim(data)))

# A tibble: 214 × 3
# Rowwise: 
   name     data               dim      
   <chr>    <list>             <list>   
 1 Amy      <tibble [30 × 3]>  <int [2]>
 2 Caroline <tibble [33 × 3]>  <int [2]>
 3 Doris    <tibble [23 × 3]>  <int [2]>
 4 Belle    <tibble [18 × 3]>  <int [2]>
 5 Gloria   <tibble [125 × 3]> <int [2]>
 6 Anita    <tibble [20 × 3]>  <int [2]>
 7 Clara    <tibble [24 × 3]>  <int [2]>
 8 Evelyn   <tibble [9 × 3]>   <int [2]>
 9 Amelia   <tibble [6 × 3]>   <int [2]>
10 Bess     <tibble [13 × 3]>  <int [2]>
# … with 204 more rows
# ℹ Use `print(n = ...)` to see more rows
3.7.5.2 

Neste exemplo, utilzamos a função dim() que retorna as dimensões de um objeto. Como na coluna “data”, temos um objeto tibble para cada linha, a função dim irá retornar dois valores (qtd de linha e qtd de colunas).

Isto só funcionou porque agrupamento através da função rowwise() a tabela anterior.

3.7.5.3 Exemplo 2:

Vamos aplicar a função mutate() para criar um coluna “normal” contendo o número de linhas da tibble presente na coluna “data”:

n_storms  |> 
  rowwise() |> 
  mutate ("num_linhas" = nrow(data))

# A tibble: 214 × 3
# Rowwise: 
   name     data               num_linhas
   <chr>    <list>                  <int>
 1 Amy      <tibble [30 × 3]>          30
 2 Caroline <tibble [33 × 3]>          33
 3 Doris    <tibble [23 × 3]>          23
 4 Belle    <tibble [18 × 3]>          18
 5 Gloria   <tibble [125 × 3]>        125
 6 Anita    <tibble [20 × 3]>          20
 7 Clara    <tibble [24 × 3]>          24
 8 Evelyn   <tibble [9 × 3]>            9
 9 Amelia   <tibble [6 × 3]>            6
10 Bess     <tibble [13 × 3]>          13
# … with 204 more rows
# ℹ Use `print(n = ...)` to see more rows

3.7.5.4 Exemplo 3:

Vamos aplicar a função mutate() para criar um coluna de lista contendo uma outra lista com a união entre as colunas de listas “vehicles” e “starships” presentes na tabela starwars:

starwars |> 
  rowwise() |> 
  mutate (transporte = list(append(vehicles, starships))) |> 
  select(name, transporte) 

# A tibble: 87 × 2
# Rowwise: 
   name               transporte
   <chr>              <list>    
 1 Luke Skywalker     <chr [4]> 
 2 C-3PO              <chr [0]> 
 3 R2-D2              <chr [0]> 
 4 Darth Vader        <chr [1]> 
 5 Leia Organa        <chr [1]> 
 6 Owen Lars          <chr [0]> 
 7 Beru Whitesun lars <chr [0]> 
 8 R5-D4              <chr [0]> 
 9 Biggs Darklighter  <chr [1]> 
10 Obi-Wan Kenobi     <chr [6]> 
# … with 77 more rows
# ℹ Use `print(n = ...)` to see more rows

Dica

Se quisermos pegar os transportes criados e colocá-los em linhas, podemos usar a função unest.

starwars |> 
  rowwise() |> 
  mutate (transporte = list(append(vehicles, starships))) |> 
  select(name, transporte) |> 
  unnest(transporte)

# A tibble: 44 × 2
   name              transporte              
   <chr>             <chr>                   
 1 Luke Skywalker    Snowspeeder             
 2 Luke Skywalker    Imperial Speeder Bike   
 3 Luke Skywalker    X-wing                  
 4 Luke Skywalker    Imperial shuttle        
 5 Darth Vader       TIE Advanced x1         
 6 Leia Organa       Imperial Speeder Bike   
 7 Biggs Darklighter X-wing                  
 8 Obi-Wan Kenobi    Tribubble bongo         
 9 Obi-Wan Kenobi    Jedi starfighter        
10 Obi-Wan Kenobi    Trade Federation cruiser
# … with 34 more rows
# ℹ Use `print(n = ...)` to see more rows

3.7.5.5 Exemplo 4:

Vamos aplicar a função mutate() para criar um coluna de lista contendo uma o tamanho das listas “vehicles” e “starships” presentes na tabela starwars, e depois iremos desaninhar esta lista, obtendo assim quantos transportes cada personagem possui:

starwars |> 
  rowwise() |> 
  mutate (transporte = list(length(c(vehicles, starships)))) |> 
  select(name, transporte) |> 
  unnest(transporte)

# A tibble: 87 × 2
   name               transporte
   <chr>                   <int>
 1 Luke Skywalker              4
 2 C-3PO                       0
 3 R2-D2                       0
 4 Darth Vader                 1
 5 Leia Organa                 1
 6 Owen Lars                   0
 7 Beru Whitesun lars          0
 8 R5-D4                       0
 9 Biggs Darklighter           1
10 Obi-Wan Kenobi              6
# … with 77 more rows
# ℹ Use `print(n = ...)` to see more rows
…
